…
From the newly created distance variable, we can calculate the average (mean) trip distance for the 1.9 milliom trips -- 1.6km. This might seem very short, but remember that these are straight-line distances between pairs of docking stations. Ideally we would calculate network distances derived from cycle trajectories. A separate reason, discovered when generating a histogram on the `dist` variable, is that there are a large number of trips (c.124,000) that start and end at the same docking station. Initially these might seem to be unsuccessful hires -- people failing to undock a bike for example. We could investigate this further by paying attention to the docking stations at which same origin-destination trips occur, as in the code block below.

```{r}
#| echo: true
#| eval: false
ny_trips |> 
  filter(start_station_id==end_station_id) |> 
  group_by(start_station_id) |>  summarise(count=n()) |> 
  left_join(
    ny_stations |>   select(stn_id, name), 
    by=c("start_station_id"="stn_id")
    ) |> 
  arrange(desc(count))

## # A tibble: 958 x 3
##    start_station_id count name
##    <chr>            <int> <chr>
##  1 ny3423            2017 West Drive & Prospect Park West
##  2 ny3881            1263 12 Ave & W 125 St
##  3 ny514             1024 12 Ave & W 40 St
##  4 ny3349             978 Grand Army Plaza & Plaza St West
##  5 ny3992             964 W 169 St & Fort Washington Ave
##  6 ny3374             860 Central Park North & Adam Clayton Powell Blvd
##  7 ny3782             837 Brooklyn Bridge Park - Pier 2
##  8 ny3599             829 Franklin Ave & Empire Blvd
##  9 ny3521             793 Lenox Ave & W 111 St
## 10 ny2006             782 Central Park S & 6 Ave
## # … with 948 more rows
…
