Visualization for Social Data Science - 2 Data Fundamentals
…
anti_join
all rows from table x where there are not matching values in table y, never duplicating rows of table x

From the newly created distance variable, we can calculate the average (mean) trip distance for the 500,000 sampled trips – 1.6km. This might seem very short, but remember that these are straight-line distances between pairs of docking stations. Ideally we would calculate distances derived from cycle trajectories. A separate reason, discovered when generating a histogram on the dist variable, is that there are a large number of trips that start and end at the same docking station. Initially these might seem to be unsuccessful hires – people failing to undock a bike for example. We could investigate this further by paying attention to the docking stations at which same origin-destination trips occur, as in the code block below.

ny_trips |>
  filter(start_station_id==end_station_id) |>
  group_by(start_station_id) |>  summarise(count=n()) |>
  left_join(
    ny_stations |>   select(stn_id, name),
    by=c("start_station_id"="stn_id")
    ) |>
  arrange(desc(count))
## # A tibble: 958 x 3
##    start_station_id count name
##    <chr>            <int> <chr>
##  1 ny3423            2017 West Drive & Prospect Park West
##  2 ny3881            1263 12 Ave & W 125 St
##  3 ny514             1024 12 Ave & W 40 St
##  4 ny3349             978 Grand Army Plaza & Plaza St West
##  5 ny3992             964 W 169 St & Fort Washington Ave
##  6 ny3374             860 Central Park North & Adam Clayton Powell Blvd
##  7 ny3782             837 Brooklyn Bridge Park - Pier 2
##  8 ny3599             829 Franklin Ave & Empire Blvd
##  9 ny3521             793 Lenox Ave & W 111 St
## 10 ny2006             782 Central Park S & 6 Ave
## # … with 948 more rows
…
Figure 2.3: Citibike average trip speeds (approximate) by age, customer type and straight-line trip distance.

2.2.5 Tidy

The ny_trips and ny_stations data already comply with the rules for tidy data (Wickham 2014). Each row in ny_trips is a distinct trip and each row in ny_stations a distinct station. However, it is common to encounter datasets that are untidy and must be reshaped. In the book’s data repository are two examples: ny_spread_rows and ny_spread_columns. ny_spread_rows is so-called because the variable summary_type is spread across the rows (observations); ny_spread_columns because multiple variables are stored in single columns – the dist_weekday, duration_weekday columns.

ny_spread_rows
## # A tibble: 411,032 × 6
##    o_station d_station wkday   count summary_type  value
##        <dbl>     <dbl> <chr>   <dbl> <chr>         <dbl>
##  1        72       116 weekend     1 dist           1.15
##  2        72       116 weekend     1 duration      18.2
##  3        72       127 weekend     4 dist           7.18
##  4        72       127 weekend     4 duration     122.
##  5        72       146 weekend     4 dist           9.21
##  6        72       146 weekend     4 duration     122.
##  7        72       164 weekend     1 dist           2.66
##  8        72       164 weekend     1 duration      12.5
##  9        72       173 weekend     2 dist           2.13
## 10        72       173 weekend     2 duration      43.6
## # … with 411,022 more rows

ny_spread_columns
## # A tibble: 156,449 × 8
##    o_station d_station count_weekend count_weekday dist_w…¹ dist_…² durat…³ durat…⁴
##        <dbl>     <dbl>         <dbl>         <dbl>    <dbl>   <dbl>   <dbl>   <dbl>
##  1        72       116             1             3     1.15    3.45    18.2    49.9
##  2        72       127             4             4     7.18    7.18   122.    101.
##  3        72       146             4             2     9.21    4.61   122.     64.1
##  4        72       164             1             1     2.66    2.66    12.5    43.2
##  5        72       173             2            13     2.13   13.9     43.6   189.
##  6        72       195             1             4     2.56   10.2     24.7    98.3
##  7        72       212             3             3     4.83    4.83    40.3    54.0
##  8        72       223             1            NA     1.13   NA       21.1    NA
##  9        72       228             2             1     4.97    2.49    30.2    13.6
## 10        72       229             1            NA     1.22   NA       39.2    NA
## # … with 156,439 more rows, and abbreviated variable names ¹​dist_weekend,
## #   ²​dist_weekday, ³​duration_weekend, ⁴​duration_weekday
…
count: count of trips for observation type

dist: total straight-line distance in km (cumulative) of trips for observation type

duration: total duration in minutes (cumulative) of trips for observation type

There are two functions for reshaping untidy data, from the tidyr package: pivot_longer() and pivot_wider(). pivot_longer() is used to tidy data in which observations are spread across columns; pivot_wider() to tidy data in which variables are spread across rows. The functions are especially useful in visual data analysis to fix messy data, but also to flexibly reshape data supplied to ggplot2 specifications (more on this in Chapters 3 and 4).

To fix ny_spread_rows, we use pivot_wider() and pass to the function’s arguments the name of the problematic column and the column containing values used to populate the newly created columns.

ny_spread_rows |>
   pivot_wider(names_from=summary_type, values_from=value)

## # A tibble: 205,516 × 6
##    o_station d_station wkday   count  dist duration
##        <dbl>     <dbl> <chr>   <dbl> <dbl>    <dbl>
##  1        72       116 weekend     1  1.15     18.2
##  2        72       127 weekend     4  7.18    122.
##  3        72       146 weekend     4  9.21    122.
##  4        72       164 weekend     1  2.66     12.5
##  5        72       173 weekend     2  2.13     43.6
##  6        72       195 weekend     1  2.56     24.7
##  7        72       212 weekend     3  4.83     40.3
##  8        72       223 weekend     1  1.13     21.1
##  9        72       228 weekend     2  4.97     30.2
## 10        72       229 weekend     1  1.22     39.2
## # … with 205,506 more rows

To fix ny_spread_columns requires a little more thought. First we pivot_longer() on columns that are muddled with multiple variables. This results in a long and thin dataset similar to ny_spread_rows – each row is the origin-destination pair with either a count, distance or duration recorded for trips occurring at weekdays or weekdays. The muddled variables, for example dist_weekend duration_weekday, now appear in the rows of a new column with the default title name. This column is separated on the _ mark to create two new columns, summary_type and wkday, used in pivot_wider().

ny_spread_columns |>
  pivot_longer(cols = count_weekend:duration_weekday) |>
  separate(col = name, into = c("summary_type", "wkday"), sep = "_") |>
  pivot_wider(names_from = summary_type, values_from = value)

## # A tibble: 312,898 × 6
##    o_station d_station wkday   count  dist duration
##        <dbl>     <dbl> <chr>   <dbl> <dbl>    <dbl>
##  1        72       116 weekend     1  1.15     18.2
##  2        72       116 weekday     3  3.45     49.9
##  3        72       127 weekend     4  7.18    122.
##  4        72       127 weekday     4  7.18    101.
##  5        72       146 weekend     4  9.21    122.
##  6        72       146 weekday     2  4.61     64.1
##  7        72       164 weekend     1  2.66     12.5
##  8        72       164 weekday     1  2.66     43.2
##  9        72       173 weekend     2  2.13     43.6
## 10        72       173 weekday    13 13.9     189.
## # … with 312,888 more rows
…
